Manipulate dates and times • timestone
…
library(timestone)
library(lubridate)

# Create a sequences of dates
date_seq <- seq.Date(ymd("2020-01-01"),
                     ymd("2020-02-01"),
                     by = "day")

# Calculate bi-weekly number of each of 
# the dates in date_seq
calculate_week(date_seq, "2020-01-2",
               no_of_weeks = 2, 
               as_integer = FALSE)
#> # A tibble: 32 x 2
#>    x_parse     week
#>    <date>     <dbl>
#>  1 2020-01-01    -1
#>  2 2020-01-02     0
#>  3 2020-01-03     0
#>  4 2020-01-04     0
#>  5 2020-01-05     0
#>  6 2020-01-06     0
#>  7 2020-01-07     0
#>  8 2020-01-08     0
#>  9 2020-01-09     0
#> 10 2020-01-10     0
#> # ... with 22 more rows
…
